13/04/2018 8:53:17:::: Peticio de registre telematic: 
13/04/2018 8:53:17:::: Error: usuari no censat.
13/04/2018 8:55:04:::: Peticio de registre telematic: 
13/04/2018 8:55:04:::: Error: usuari registrat anteriorment.
13/04/2018 8:58:40:::: Peticio de registre telematic: 
13/04/2018 8:58:40:::: Registre per DNI: 47621143 - B - Insercio registre telematic: 44.
13/04/2018 9:08:57:::: Peticio de registre telematic: 
13/04/2018 9:08:57:::: Error: intent registre amb email ja utilitzat: mariojuan771@gmail.com
13/04/2018 9:14:58:::: Confirmacio: mariojuan771@gmail.com ha estat confirmat a la taula Registrats.
13/04/2018 9:23:37:::: Peticio de registre telematic: 
13/04/2018 9:23:37:::: Error: usuari registrat anteriorment.
13/04/2018 9:29:10:::: Error: 213.98.169.184 intent de confirmar sense pas de dades per la url.
13/04/2018 9:38:30:::: Recuperacio PIN per DNI: 47621143 - B  213.98.169.184
13/04/2018 9:38:30:::: Recuperacio PIN: Email mariojuan771@gmail.com amb PIN 9lDCTe ha demanat recuperar PIN.
13/04/2018 9:39:31:::: Recuperacio PIN per DNI: 47621143 - B  213.98.169.184
13/04/2018 9:39:32:::: Recuperacio PIN: Email mariojuan771@gmail.com amb PIN 9lDCTe ha demanat recuperar PIN.
13/04/2018 9:50:01:::: Recuperacio PIN per DNI: 47621143 - B  213.96.20.27
13/04/2018 9:50:01:::: Recuperacio PIN: Email mariojuan771@gmail.com amb PIN 9lDCTe ha demanat recuperar PIN.
13/04/2018 9:53:15:::: Recuperacio PIN per DNI: 47621143 - B  213.96.20.27
13/04/2018 9:53:15:::: Recuperacio PIN: Email mariojuan771@gmail.com amb PIN 9lDCTe ha demanat recuperar PIN.
13/04/2018 10:00:24:::: Recuperacio PIN per DNI: 47621143 - B  213.96.20.27
13/04/2018 10:00:24:::: Recuperacio PIN: Email mariojuan771@gmail.com amb PIN 9lDCTe ha demanat recuperar PIN.
13/04/2018 10:05:50:::: Recuperacio PIN per DNI: 47621143 - B  213.96.20.27
13/04/2018 10:05:50:::: No esta a la taula de Registrats - ip: 213.96.20.27
13/04/2018 12:39:24:::: Peticio de registre telematic: 
13/04/2018 12:39:24:::: Error: usuari no censat.
13/04/2018 12:43:56:::: Peticio de registre telematic: 
13/04/2018 12:43:56:::: Registre per DNI: 40925340 - Z - Insercio registre telematic: 45.
13/04/2018 12:45:07:::: Confirmacio: vendrells@icloud.com ha estat confirmat a la taula Registrats.
